<?xml version="1.0" encoding="UTF-8" standalone="no"?>
<!DOCTYPE svg PUBLIC "-//W3C//DTD SVG 1.1//EN"
 "http://www.w3.org/Graphics/SVG/1.1/DTD/svg11.dtd">
<!-- Generated by graphviz version 11.0.0 (20240428.1522)
 -->
<!-- Title: ye Pages: 1 -->
<svg width="1048pt" height="792pt"
 viewBox="0.00 0.00 1047.97 792.00" xmlns="http://www.w3.org/2000/svg" xmlns:xlink="http://www.w3.org/1999/xlink">
<g id="graph0" class="graph" transform="scale(0.963211 0.963211) rotate(0) translate(4 818.25)">
<title>ye</title>
<polygon fill="white" stroke="none" points="-4,4 -4,-818.25 1084,-818.25 1084,4 -4,4"/>
<text text-anchor="middle" x="540" y="-4.95" font-family="Hershey-Noailles-futura" font-size="14.00">NETWORK DIAGRAM</text>
<g id="clust1" class="cluster">
<title>cluster_0</title>
<polygon fill="white" stroke="black" stroke-dasharray="1,5" points="272.15,-552.51 272.15,-796.2 651.38,-796.2 651.38,-552.51 272.15,-552.51"/>
</g>
<g id="clust2" class="cluster">
<title>cluster_1</title>
<polygon fill="white" stroke="none" points="680.76,-552.51 680.76,-796.2 1068.25,-796.2 1068.25,-552.51 680.76,-552.51"/>
</g>
<g id="clust3" class="cluster">
<title>cluster_2</title>
<polygon fill="white" stroke="black" stroke-dasharray="1,5" points="263.89,-40.3 263.89,-534.46 442.94,-534.46 442.94,-40.3 263.89,-40.3"/>
</g>
<!-- IP_Core -->
<g id="node1" class="node">
<title>IP_Core</title>
<text text-anchor="middle" x="353.25" y="-676.2" font-family="Hershey-Noailles-futura" font-size="24.00">IP Core</text>
<text text-anchor="middle" x="353.25" y="-651.45" font-family="Hershey-Noailles-futura" font-size="24.00">Network</text>
</g>
<!-- Access_Networks -->
<g id="node2" class="node">
<title>Access_Networks</title>
<text text-anchor="middle" x="562.25" y="-676.2" font-family="Hershey-Noailles-futura" font-size="24.00">Access</text>
<text text-anchor="middle" x="562.25" y="-651.45" font-family="Hershey-Noailles-futura" font-size="24.00">Networks</text>
</g>
<!-- IP_Core&#45;&gt;Access_Networks -->
<g id="edge1" class="edge">
<title>IP_Core&#45;&gt;Access_Networks</title>
<path fill="none" stroke="black" d="M418.37,-667.95C441.56,-667.39 467.84,-667.35 491.49,-667.83"/>
<polygon fill="black" stroke="black" points="401.6,-673.49 401.29,-663.49 403.29,-663.43 403.6,-673.42 401.6,-673.49"/>
<polyline fill="none" stroke="black" points="400.45,-668.52 405.44,-668.36"/>
<polygon fill="none" stroke="black" points="418.34,-667.96 412.47,-672.14 406.34,-668.33 412.22,-664.15 418.34,-667.96"/>
<polygon fill="black" stroke="black" points="508.5,-663.28 508.24,-673.28 506.24,-673.23 506.5,-663.23 508.5,-663.28"/>
<polyline fill="none" stroke="black" points="509.37,-668.31 504.37,-668.18"/>
<polygon fill="none" stroke="black" points="491.47,-667.83 497.58,-663.99 503.47,-668.15 497.36,-671.99 491.47,-667.83"/>
</g>
<!-- IP_Core&#45;&gt;Access_Networks -->
<g id="edge7" class="edge">
<title>IP_Core&#45;&gt;Access_Networks</title>
<path fill="none" stroke="black" d="M418.37,-680.55C441.56,-681.11 467.84,-681.15 491.49,-680.67"/>
<polygon fill="black" stroke="black" points="401.29,-685.01 401.6,-675.01 403.6,-675.08 403.29,-685.07 401.29,-685.01"/>
<polyline fill="none" stroke="black" points="400.45,-679.98 405.44,-680.14"/>
<polygon fill="none" stroke="black" points="418.34,-680.54 412.22,-684.35 406.34,-680.17 412.47,-676.36 418.34,-680.54"/>
<polygon fill="black" stroke="black" points="508.24,-675.22 508.5,-685.22 506.5,-685.27 506.24,-675.27 508.24,-675.22"/>
<polyline fill="none" stroke="black" points="509.37,-680.19 504.37,-680.32"/>
<polygon fill="none" stroke="black" points="491.47,-680.67 497.36,-676.51 503.47,-680.35 497.58,-684.51 491.47,-680.67"/>
</g>
<!-- LAN -->
<g id="node5" class="node">
<title>LAN</title>
<text text-anchor="middle" x="783.25" y="-676.2" font-family="Hershey-Noailles-futura" font-size="24.00">Local Area</text>
<text text-anchor="middle" x="783.25" y="-651.45" font-family="Hershey-Noailles-futura" font-size="24.00">Network</text>
</g>
<!-- Access_Networks&#45;&gt;LAN -->
<g id="edge6" class="edge">
<title>Access_Networks&#45;&gt;LAN</title>
<path fill="none" stroke="black" d="M633.19,-674.25C655.69,-674.25 680.75,-674.25 703.82,-674.25"/>
<polygon fill="black" stroke="black" points="616.15,-679.25 616.15,-669.25 618.15,-669.25 618.15,-679.25 616.15,-679.25"/>
<polyline fill="none" stroke="black" points="615.15,-674.25 620.15,-674.25"/>
<polygon fill="none" stroke="black" points="633.05,-674.25 627.05,-678.25 621.05,-674.25 627.05,-670.25 633.05,-674.25"/>
<polygon fill="black" stroke="black" points="720.8,-669.25 720.8,-679.25 718.8,-679.25 718.8,-669.25 720.8,-669.25"/>
<polyline fill="none" stroke="black" points="721.8,-674.25 716.8,-674.25"/>
<polygon fill="none" stroke="black" points="703.9,-674.25 709.9,-670.25 715.9,-674.25 709.9,-678.25 703.9,-674.25"/>
</g>
<!-- Transmission_Cables -->
<g id="node3" class="node">
<title>Transmission_Cables</title>
<text text-anchor="middle" x="111.25" y="-419.2" font-family="Hershey-Noailles-futura" font-size="24.00">Transmission</text>
<text text-anchor="middle" x="111.25" y="-394.45" font-family="Hershey-Noailles-futura" font-size="24.00">Cables</text>
</g>
<!-- Transmission_Cables&#45;&gt;IP_Core -->
<g id="edge3" class="edge">
<title>Transmission_Cables&#45;&gt;IP_Core</title>
<path fill="none" stroke="black" stroke-width="4" d="M169.9,-478.99C207.67,-519.44 256.86,-572.1 294.62,-612.54"/>
<polygon fill="black" stroke="black" stroke-width="4" points="153.14,-468.37 160.45,-461.54 161.82,-463 154.51,-469.83 153.14,-468.37"/>
<polyline fill="none" stroke="black" stroke-width="4" points="156.12,-464.22 159.53,-467.88"/>
<polygon fill="none" stroke="black" stroke-width="4" points="170.18,-479.28 163.16,-477.63 161.99,-470.51 169.01,-472.17 170.18,-479.28"/>
<polygon fill="black" stroke="black" stroke-width="4" points="311.3,-623.07 303.99,-629.9 302.62,-628.43 309.93,-621.61 311.3,-623.07"/>
<polyline fill="none" stroke="black" stroke-width="4" points="308.32,-627.21 304.91,-623.56"/>
<polygon fill="none" stroke="black" stroke-width="4" points="294.26,-612.15 301.28,-613.81 302.45,-620.92 295.43,-619.27 294.26,-612.15"/>
</g>
<!-- IP_Core_2 -->
<g id="node7" class="node">
<title>IP_Core_2</title>
<text text-anchor="middle" x="353.25" y="-164.2" font-family="Hershey-Noailles-futura" font-size="24.00">IP Core</text>
<text text-anchor="middle" x="353.25" y="-139.45" font-family="Hershey-Noailles-futura" font-size="24.00">Network</text>
</g>
<!-- Transmission_Cables&#45;&gt;IP_Core_2 -->
<g id="edge4" class="edge">
<title>Transmission_Cables&#45;&gt;IP_Core_2</title>
<path fill="none" stroke="black" stroke-width="4" d="M170.14,-355.74C207.79,-315.73 256.71,-263.76 294.36,-223.76"/>
<polygon fill="black" stroke="black" stroke-width="4" points="160.72,-373.04 153.44,-366.19 154.81,-364.73 162.09,-371.59 160.72,-373.04"/>
<polyline fill="none" stroke="black" stroke-width="4" points="156.4,-370.34 159.82,-366.7"/>
<polygon fill="none" stroke="black" stroke-width="4" points="170.52,-355.34 169.32,-362.45 162.29,-364.08 163.49,-356.97 170.52,-355.34"/>
<polygon fill="black" stroke="black" stroke-width="4" points="303.69,-206.54 310.98,-213.4 309.6,-214.85 302.32,-208 303.69,-206.54"/>
<polyline fill="none" stroke="black" stroke-width="4" points="308.02,-209.24 304.59,-212.88"/>
<polygon fill="none" stroke="black" stroke-width="4" points="293.9,-224.25 295.1,-217.14 302.12,-215.51 300.92,-222.62 293.9,-224.25"/>
</g>
<!-- Data_Centers -->
<g id="node4" class="node">
<title>Data_Centers</title>
<text text-anchor="middle" x="562.25" y="-414.2" font-family="Hershey-Noailles-futura" font-size="24.00">Data</text>
<text text-anchor="middle" x="562.25" y="-389.45" font-family="Hershey-Noailles-futura" font-size="24.00">Centers</text>
</g>
<!-- Devices -->
<g id="node6" class="node">
<title>Devices</title>
<text text-anchor="middle" x="991.25" y="-663.83" font-family="Hershey-Noailles-futura" font-size="24.00">Devices</text>
</g>
<!-- LAN&#45;&gt;Devices -->
<g id="edge2" class="edge">
<title>LAN&#45;&gt;Devices</title>
<path fill="none" stroke="black" stroke-dasharray="5,2" d="M849.33,-674.25C879.52,-674.25 914.76,-674.25 942.45,-674.25"/>
<polygon fill="black" stroke="black" points="845.66,-679.25 845.66,-669.25 847.66,-669.25 847.66,-679.25 845.66,-679.25"/>
<polyline fill="none" stroke="black" points="844.66,-674.25 849.66,-674.25"/>
<polygon fill="black" stroke="black" points="946.18,-669.25 946.18,-679.25 944.18,-679.25 944.18,-669.25 946.18,-669.25"/>
<polyline fill="none" stroke="black" points="947.18,-674.25 942.18,-674.25"/>
</g>
<!-- Access_Networks_2 -->
<g id="node8" class="node">
<title>Access_Networks_2</title>
<text text-anchor="middle" x="353.25" y="-414.2" font-family="Hershey-Noailles-futura" font-size="24.00">Access</text>
<text text-anchor="middle" x="353.25" y="-389.45" font-family="Hershey-Noailles-futura" font-size="24.00">Networks</text>
</g>
<!-- IP_Core_2&#45;&gt;Access_Networks_2 -->
<g id="edge8" class="edge">
<title>IP_Core_2&#45;&gt;Access_Networks_2</title>
<path fill="none" stroke="black" d="M353.25,-226.03C353.25,-266.68 353.25,-307.32 353.25,-347.96"/>
<polygon fill="black" stroke="black" points="348.25,-209.15 358.25,-209.15 358.25,-211.15 348.25,-211.15 348.25,-209.15"/>
<polyline fill="none" stroke="black" points="353.25,-208.15 353.25,-213.15"/>
<polygon fill="none" stroke="black" points="353.25,-226.05 349.25,-220.05 353.25,-214.05 357.25,-220.05 353.25,-226.05"/>
<polygon fill="black" stroke="black" points="358.25,-365.01 348.25,-365.01 348.25,-363.01 358.25,-363.01 358.25,-365.01"/>
<polyline fill="none" stroke="black" points="353.25,-366.01 353.25,-361.01"/>
<polygon fill="none" stroke="black" points="353.25,-348.11 357.25,-354.11 353.25,-360.11 349.25,-354.11 353.25,-348.11"/>
</g>
<!-- Access_Networks_2&#45;&gt;Data_Centers -->
<g id="edge5" class="edge">
<title>Access_Networks_2&#45;&gt;Data_Centers</title>
<path fill="none" stroke="black" d="M423.9,-412.25C448.26,-412.25 475.42,-412.25 499.12,-412.25"/>
<polygon fill="black" stroke="black" points="406.95,-417.25 406.95,-407.25 408.95,-407.25 408.95,-417.25 406.95,-417.25"/>
<polyline fill="none" stroke="black" points="405.95,-412.25 410.95,-412.25"/>
<polygon fill="none" stroke="black" points="423.85,-412.25 417.85,-416.25 411.85,-412.25 417.85,-408.25 423.85,-412.25"/>
<polygon fill="black" stroke="black" points="515.86,-407.25 515.86,-417.25 513.86,-417.25 513.86,-407.25 515.86,-407.25"/>
<polyline fill="none" stroke="black" points="516.86,-412.25 511.86,-412.25"/>
<polygon fill="none" stroke="black" points="498.96,-412.25 504.96,-408.25 510.96,-412.25 504.96,-416.25 498.96,-412.25"/>
</g>
</g>
</svg>
